C:\devRepo\marketplace-selenium\src\main\java\utils\DriverManager.java
C:\devRepo\marketplace-selenium\src\main\java\base\Base.java
C:\devRepo\marketplace-selenium\src\main\java\page\LoginPage.java
C:\devRepo\marketplace-selenium\src\main\java\utils\ConfigurationManager.java
C:\devRepo\marketplace-selenium\src\main\java\utils\DriverFactory.java
C:\devRepo\marketplace-selenium\src\main\java\utils\ConfigurationInstance.java
C:\devRepo\marketplace-selenium\src\main\java\page\HomePage.java
